[
  {
    "id": "rest_password",
    "EmailSubjectContent": [
      {
        "LanguageCode": "FR",
        "Content": "Modifiez votre mot de passe Axiobat"
      }
    ]
  },
  {
    "id": "email_confirmation",
    "EmailSubjectContent": [
      {
        "LanguageCode": "FR",
        "Content": "Confirmation de votre compte Axiobat"
      }
    ]
  }
]