[
    {
        "id": "1",
        "type": 0,
        "categoryType": 0,
        "label": "Comptes comptable par défaut",
        "code": "0",
        "description": "Comptes comptable par défaut",
        "vatValue": 0.0,
        "parentId": null,
        "subCategories": [],
        "classifications": [],
        "createdOn": "2020-02-15T12:53:17+00:00",
        "lastModifiedOn": "2020-02-15T12:53:18+00:00",
        "searchTerms": "Comptes comptable par défaut"
    },
    {
        "id": "11",
        "type": 0,
        "categoryType": 2,
        "label": "Compte comptable de client",
        "code": "411",
        "description": "Compte comptable de client",
        "vatValue": 0.0,
        "parentId": "1",
        "subCategories": [],
        "classifications": [],
        "createdOn": "2020-02-15T12:53:17+00:00",
        "lastModifiedOn": "2020-06-16T09:49:36.209246+00:00",
        "searchTerms": "Compte comptable de client"
    },
    {
        "id": "110",
        "type": 5,
        "categoryType": 0,
        "label": "Tax par default",
        "code": "44571",
        "description": "Tax par default",
        "vatValue": -1.0,
        "parentId": "4",
        "subCategories": [],
        "classifications": [],
        "createdOn": "2020-02-15T12:53:17+00:00",
        "lastModifiedOn": "2020-02-15T12:53:18+00:00",
        "searchTerms": "Tax par default"
    },
    {
        "id": "111",
        "type": 5,
        "categoryType": 0,
        "label": "Tax déductible",
        "code": "44566",
        "description": "Tax déductible",
        "vatValue": -1.0,
        "parentId": "4",
        "subCategories": [],
        "classifications": [],
        "createdOn": "2020-02-15T12:53:17+00:00",
        "lastModifiedOn": "2020-02-15T12:53:18+00:00",
        "searchTerms": "Tax déductible"
    },
    {
        "id": "112",
        "type": 5,
        "categoryType": 0,
        "label": "Taxe sur immobilisations",
        "code": "44562",
        "description": "Taxe sur immobilisations",
        "vatValue": -1.0,
        "parentId": "4",
        "subCategories": [],
        "classifications": [],
        "createdOn": "2020-02-15T12:53:17+00:00",
        "lastModifiedOn": "2020-02-15T12:53:18+00:00",
        "searchTerms": "Taxe sur immobilisations"
    },
    {
        "id": "113",
        "type": 5,
        "categoryType": 0,
        "label": "Tax 2.1 %",
        "code": "44571021",
        "description": "Tax 2.1 %",
        "vatValue": 2.1,
        "parentId": "4",
        "subCategories": [],
        "classifications": [],
        "createdOn": "2020-02-15T12:53:17+00:00",
        "lastModifiedOn": "2020-02-15T12:53:18+00:00",
        "searchTerms": "Tax 2.1 %"
    },
    {
        "id": "114",
        "type": 5,
        "categoryType": 0,
        "label": "Tax 5.5 %",
        "code": "44571055",
        "description": "Tax 5.5 %",
        "vatValue": 5.5,
        "parentId": "4",
        "subCategories": [],
        "classifications": [],
        "createdOn": "2020-02-15T12:53:17+00:00",
        "lastModifiedOn": "2020-02-15T12:53:18+00:00",
        "searchTerms": "Tax 5.5 %"
    },
    {
        "id": "115",
        "type": 5,
        "categoryType": 0,
        "label": "Tax 7 %",
        "code": "44571070",
        "description": "Tax 7 %",
        "vatValue": 7.0,
        "parentId": "4",
        "subCategories": [],
        "classifications": [],
        "createdOn": "2020-02-15T12:53:17+00:00",
        "lastModifiedOn": "2020-02-15T12:53:18+00:00",
        "searchTerms": "Tax7 %"
    },
    {
        "id": "116",
        "type": 5,
        "categoryType": 0,
        "label": "Tax 10 %",
        "code": "44571100",
        "description": "Tax 10 %",
        "vatValue": 10.0,
        "parentId": "4",
        "subCategories": [],
        "classifications": [],
        "createdOn": "2020-02-15T12:53:17+00:00",
        "lastModifiedOn": "2020-02-15T12:53:18+00:00",
        "searchTerms": "Tax 10 %"
    },
    {
        "id": "117",
        "type": 5,
        "categoryType": 0,
        "label": "Tax 20 %",
        "code": "44571200",
        "description": "Tax 20 %",
        "vatValue": 20.0,
        "parentId": "4",
        "subCategories": [],
        "classifications": [],
        "createdOn": "2020-02-15T12:53:17+00:00",
        "lastModifiedOn": "2020-02-15T12:53:18+00:00",
        "searchTerms": "Tax 20 %"
    },
    {
        "id": "12",
        "type": 0,
        "categoryType": 3,
        "label": "Compte comptable de fournisseur",
        "code": "401",
        "description": "Compte comptable de fournisseur",
        "vatValue": 0.0,
        "parentId": "1",
        "subCategories": [],
        "classifications": [],
        "createdOn": "2020-02-15T12:53:17+00:00",
        "lastModifiedOn": "2020-02-15T12:53:18+00:00",
        "searchTerms": "Compte comptable de fournisseur"
    },
    {
        "id": "13",
        "type": 0,
        "categoryType": 4,
        "label": "Compte comptable d'avoirs",
        "code": "709",
        "description": "Compte comptable d'avoirs",
        "vatValue": 0.0,
        "parentId": "1",
        "subCategories": [],
        "classifications": [],
        "createdOn": "2020-02-15T12:53:17+00:00",
        "lastModifiedOn": "2020-02-15T12:53:18+00:00",
        "searchTerms": "Compte comptable d'avoirs"
    },
    {
        "id": "14",
        "type": 0,
        "categoryType": 5,
        "label": "Compte comptable de caisse",
        "code": "531",
        "description": "Compte comptable de caisse",
        "vatValue": 0.0,
        "parentId": "1",
        "subCategories": [],
        "classifications": [],
        "createdOn": "2020-02-15T12:53:17+00:00",
        "lastModifiedOn": "2020-02-15T12:53:18+00:00",
        "searchTerms": "Compte comptable de caisse"
    },
    {
        "id": "15",
        "type": 0,
        "categoryType": 6,
        "label": "Compte comptable de banque",
        "code": "512",
        "description": "Compte comptable de banque",
        "vatValue": 0.0,
        "parentId": "1",
        "subCategories": [],
        "classifications": [],
        "createdOn": "2020-02-15T12:53:17+00:00",
        "lastModifiedOn": "2020-02-15T12:53:18+00:00",
        "searchTerms": "Compte comptable de banque"
    },
    {
        "id": "16",
        "type": 0,
        "categoryType": 1,
        "label": "Compte comptable de virements internes",
        "code": "580",
        "description": "Compte comptable de virements internes",
        "vatValue": 0.0,
        "parentId": "1",
        "subCategories": [],
        "classifications": [],
        "createdOn": "2020-02-15T12:53:17+00:00",
        "lastModifiedOn": "2020-02-15T12:53:18+00:00",
        "searchTerms": "Compte comptable de virements internes"
    },
    {
        "id": "17",
        "type": 0,
        "categoryType": 0,
        "label": "Compte comptable d'attente",
        "code": "471",
        "description": "Compte comptable d'attente",
        "vatValue": 0.0,
        "parentId": "1",
        "subCategories": [],
        "classifications": [],
        "createdOn": "2020-02-15T12:53:17+00:00",
        "lastModifiedOn": "2020-02-15T12:53:18+00:00",
        "searchTerms": "Compte comptable d'attente"
    },
    {
        "id": "18",
        "type": 0,
        "categoryType": 0,
        "label": "Fournisseurs d'immobilisations",
        "code": "404",
        "description": "Fournisseurs d'immobilisations",
        "vatValue": 0.0,
        "parentId": "1",
        "subCategories": [],
        "classifications": [],
        "createdOn": "2020-02-15T12:53:17+00:00",
        "lastModifiedOn": "2020-02-15T12:53:18+00:00",
        "searchTerms": "Fournisseurs d'immobilisations"
    },
    {
        "id": "2",
        "type": 1,
        "categoryType": 0,
        "label": "Comptes comptable des Charges",
        "code": "0",
        "description": "Comptes comptable des Charges",
        "vatValue": 0.0,
        "parentId": null,
        "subCategories": [],
        "classifications": [],
        "createdOn": "2020-02-15T12:53:17+00:00",
        "lastModifiedOn": "2020-02-15T12:53:18+00:00",
        "searchTerms": "Comptes comptable des Charges"
    },
    {
        "id": "20",
        "type": 5,
        "categoryType": 0,
        "label": "Ventes de produits finis",
        "code": "701",
        "description": "Ventes de produits finis",
        "vatValue": 0.0,
        "parentId": "3",
        "subCategories": [],
        "classifications": [],
        "createdOn": "2020-02-15T12:53:17+00:00",
        "lastModifiedOn": "2020-02-15T12:53:18+00:00",
        "searchTerms": "701 Ventes de produits finis 701"
    },
    {
        "id": "21",
        "type": 5,
        "categoryType": 0,
        "label": "Prestations de services",
        "code": "706",
        "description": "Prestations de services",
        "vatValue": 0.0,
        "parentId": "3",
        "subCategories": [],
        "classifications": [],
        "createdOn": "2020-02-15T12:53:17+00:00",
        "lastModifiedOn": "2020-02-15T12:53:18+00:00",
        "searchTerms": "706 Prestations de services"
    },
    {
        "id": "210",
        "type": 5,
        "categoryType": 0,
        "label": "Terrains ",
        "code": "211",
        "description": "Terrains ",
        "vatValue": 0.0,
        "parentId": "5",
        "subCategories": [],
        "classifications": [],
        "createdOn": "2020-02-15T12:53:17+00:00",
        "lastModifiedOn": "2020-02-15T12:53:18+00:00",
        "searchTerms": "211 Terrains"
    },
    {
        "id": "211",
        "type": 5,
        "categoryType": 0,
        "label": "Mobilier",
        "code": "2184",
        "description": "Mobilier",
        "vatValue": 0.0,
        "parentId": "5",
        "subCategories": [],
        "classifications": [],
        "createdOn": "2020-02-15T12:53:17+00:00",
        "lastModifiedOn": "2020-02-15T12:53:18+00:00",
        "searchTerms": "2184 Mobilier"
    },
    {
        "id": "212",
        "type": 5,
        "categoryType": 0,
        "label": "Matériel de bureau et matériel informatique",
        "code": "2183",
        "description": "Matériel de bureau et matériel informatique",
        "vatValue": 0.0,
        "parentId": "5",
        "subCategories": [],
        "classifications": [],
        "createdOn": "2020-02-15T12:53:17+00:00",
        "lastModifiedOn": "2020-02-15T12:53:18+00:00",
        "searchTerms": "2183 Matériel de bureau et matériel informatique"
    },
    {
        "id": "213",
        "type": 5,
        "categoryType": 0,
        "label": "Matériel de transport",
        "code": "2182",
        "description": "Matériel de transport",
        "vatValue": 0.0,
        "parentId": "5",
        "subCategories": [],
        "classifications": [],
        "createdOn": "2020-02-15T12:53:17+00:00",
        "lastModifiedOn": "2020-02-15T12:53:18+00:00",
        "searchTerms": "2182 Matériel de transport"
    },
    {
        "id": "214",
        "type": 5,
        "categoryType": 0,
        "label": "Constructions",
        "code": "213",
        "description": "Constructions",
        "vatValue": 0.0,
        "parentId": "5",
        "subCategories": [],
        "classifications": [],
        "createdOn": "2020-02-15T12:53:17+00:00",
        "lastModifiedOn": "2020-02-15T12:53:18+00:00",
        "searchTerms": "213 Constructions"
    },
    {
        "id": "215",
        "type": 5,
        "categoryType": 0,
        "label": "Concessions et droits similaires, brevets, licences, marques, procédés, logiciels, droits et valeurs similaires",
        "code": "205",
        "description": "Concessions et droits similaires, brevets, licences, marques, procédés, logiciels, droits et valeurs similaires",
        "vatValue": 0.0,
        "parentId": "5",
        "subCategories": [],
        "classifications": [],
        "createdOn": "2020-02-15T12:53:17+00:00",
        "lastModifiedOn": "2020-02-15T12:53:18+00:00",
        "searchTerms": "205 Concessions et droits similaires, brevets, licences, marques, procédés, logiciels, droits et valeurs similaires"
    },
    {
        "id": "216",
        "type": 5,
        "categoryType": 0,
        "label": "Installations techniques, matériels et outillage industriels",
        "code": "215",
        "description": "Installations techniques, matériels et outillage industriels",
        "vatValue": 0.0,
        "parentId": "5",
        "subCategories": [],
        "classifications": [],
        "createdOn": "2020-02-15T12:53:17+00:00",
        "lastModifiedOn": "2020-02-15T12:53:18+00:00",
        "searchTerms": "215 Installations techniques, matériels et outillage industriels"
    },
    {
        "id": "22",
        "type": 5,
        "categoryType": 0,
        "label": "Ventes de marchandises",
        "code": "707",
        "description": "Ventes de marchandises",
        "vatValue": 0.0,
        "parentId": "3",
        "subCategories": [],
        "classifications": [],
        "createdOn": "2020-02-15T12:53:17+00:00",
        "lastModifiedOn": "2020-02-15T12:53:18+00:00",
        "searchTerms": "707 Ventes de marchandises"
    },
    {
        "id": "23",
        "type": 5,
        "categoryType": 0,
        "label": "Produits des activités annexes",
        "code": "708",
        "description": "Produits des activités annexes",
        "vatValue": 0.0,
        "parentId": "3",
        "subCategories": [],
        "classifications": [],
        "createdOn": "2020-02-15T12:53:17+00:00",
        "lastModifiedOn": "2020-02-15T12:53:18+00:00",
        "searchTerms": "708 Produits des activités annexes"
    },
    {
        "id": "3",
        "type": 2,
        "categoryType": 0,
        "label": "Comptes comptable des Produits",
        "code": "0",
        "description": "Comptes comptable des Produits",
        "vatValue": 0.0,
        "parentId": null,
        "subCategories": [],
        "classifications": [],
        "createdOn": "2020-02-15T12:53:17+00:00",
        "lastModifiedOn": "2020-02-15T12:53:18+00:00",
        "searchTerms": "Comptes comptable des Produits"
    },
    {
        "id": "4",
        "type": 3,
        "categoryType": 0,
        "label": "Comptes comptable de TVA",
        "code": "0",
        "description": "Comptes comptable des Produits",
        "vatValue": 0.0,
        "parentId": null,
        "subCategories": [],
        "classifications": [],
        "createdOn": "2020-02-15T12:53:17+00:00",
        "lastModifiedOn": "2020-02-15T12:53:18+00:00",
        "searchTerms": "Comptes comptable de TVA"
    },
    {
        "id": "40",
        "type": 5,
        "categoryType": 8,
        "label": "Achats stockés - Matières premières (et fournitures)",
        "code": "601",
        "description": "Achats stockés - Matières premières (et fournitures)",
        "vatValue": 0.0,
        "parentId": "2",
        "subCategories": [],
        "classifications": [],
        "createdOn": "2020-02-15T12:53:17+00:00",
        "lastModifiedOn": "2020-02-15T12:53:18+00:00",
        "searchTerms": "601 Achats stockés - Matières premières (et fournitures)"
    },
    {
        "id": "41",
        "type": 5,
        "categoryType": 7,
        "label": "Sous-traitance générale",
        "code": "611",
        "description": "Sous-traitance générale",
        "vatValue": 0.0,
        "parentId": "2",
        "subCategories": [],
        "classifications": [],
        "createdOn": "2020-02-15T12:53:17+00:00",
        "lastModifiedOn": "2020-02-15T12:53:18+00:00",
        "searchTerms": "611 Sous-traitance générale"
    },
    {
        "id": "42",
        "type": 5,
        "categoryType": 0,
        "label": "Achats stockés - Autres approvisionnements",
        "code": "602",
        "description": "Achats stockés - Autres approvisionnements",
        "vatValue": 0.0,
        "parentId": "2",
        "subCategories": [],
        "classifications": [],
        "createdOn": "2020-02-15T12:53:17+00:00",
        "lastModifiedOn": "2020-02-15T12:53:18+00:00",
        "searchTerms": "602 Achats stockés - Autres approvisionnements"
    },
    {
        "id": "43",
        "type": 5,
        "categoryType": 0,
        "label": "Achats d'études et prestations de services",
        "code": "604",
        "description": "Achats d'études et prestations de services",
        "vatValue": 0.0,
        "parentId": "2",
        "subCategories": [],
        "classifications": [],
        "createdOn": "2020-02-15T12:53:17+00:00",
        "lastModifiedOn": "2020-02-15T12:53:18+00:00",
        "searchTerms": "604 Achats d'études et prestations de services"
    },
    {
        "id": "44",
        "type": 5,
        "categoryType": 0,
        "label": "Achats de matériel, équipements et travaux",
        "code": "605",
        "description": "Achats de matériel, équipements et travaux",
        "vatValue": 0.0,
        "parentId": "2",
        "subCategories": [],
        "classifications": [],
        "createdOn": "2020-02-15T12:53:17+00:00",
        "lastModifiedOn": "2020-02-15T12:53:18+00:00",
        "searchTerms": "605 Achats de matériel, équipements et travaux"
    },
    {
        "id": "45",
        "type": 5,
        "categoryType": 0,
        "label": "Achats non stockés de matière et fournitures",
        "code": "606",
        "description": "Achats non stockés de matière et fournitures",
        "vatValue": 0.0,
        "parentId": "2",
        "subCategories": [],
        "classifications": [],
        "createdOn": "2020-02-15T12:53:17+00:00",
        "lastModifiedOn": "2020-02-15T12:53:18+00:00",
        "searchTerms": "606 Achats non stockés de matière et fournitures"
    },
    {
        "id": "46",
        "type": 5,
        "categoryType": 0,
        "label": "Achats de marchandises",
        "code": "607",
        "description": "Achats de marchandises",
        "vatValue": 0.0,
        "parentId": "2",
        "subCategories": [],
        "classifications": [],
        "createdOn": "2020-02-15T12:53:17+00:00",
        "lastModifiedOn": "2020-02-15T12:53:18+00:00",
        "searchTerms": "607 Achats de marchandises"
    },
    {
        "id": "47",
        "type": 5,
        "categoryType": 0,
        "label": "Services extérieurs",
        "code": "610",
        "description": "Services extérieurs",
        "vatValue": 0.0,
        "parentId": "2",
        "subCategories": [],
        "classifications": [],
        "createdOn": "2020-02-15T12:53:17+00:00",
        "lastModifiedOn": "2020-02-15T12:53:18+00:00",
        "searchTerms": "610 Services extérieurs"
    },
    {
        "id": "48",
        "type": 5,
        "categoryType": 0,
        "label": "Redevances de crédit-bail",
        "code": "612",
        "description": "Redevances de crédit-bail",
        "vatValue": 0.0,
        "parentId": "2",
        "subCategories": [],
        "classifications": [],
        "createdOn": "2020-02-15T12:53:17+00:00",
        "lastModifiedOn": "2020-02-15T12:53:18+00:00",
        "searchTerms": "612 Redevances de crédit-bail"
    },
    {
        "id": "49",
        "type": 5,
        "categoryType": 0,
        "label": "Locations",
        "code": "613",
        "description": "Locations",
        "vatValue": 0.0,
        "parentId": "2",
        "subCategories": [],
        "classifications": [],
        "createdOn": "2020-02-15T12:53:17+00:00",
        "lastModifiedOn": "2020-02-15T12:53:18+00:00",
        "searchTerms": "613 Locations"
    },
    {
        "id": "5",
        "type": 4,
        "categoryType": 0,
        "label": "Comptes comptable d'immobilisations",
        "code": "0",
        "description": "Comptes comptable d'immobilisations",
        "vatValue": 0.0,
        "parentId": null,
        "subCategories": [],
        "classifications": [],
        "createdOn": "2020-02-15T12:53:17+00:00",
        "lastModifiedOn": "2020-02-15T12:53:18+00:00",
        "searchTerms": "Comptes comptable d'immobilisations"
    },
    {
        "id": "50",
        "type": 5,
        "categoryType": 0,
        "label": "Charges locatives et de copropriété",
        "code": "614",
        "description": "Charges locatives et de copropriété",
        "vatValue": 0.0,
        "parentId": "2",
        "subCategories": [],
        "classifications": [],
        "createdOn": "2020-02-15T12:53:17+00:00",
        "lastModifiedOn": "2020-02-15T12:53:18+00:00",
        "searchTerms": "614 Charges locatives et de copropriété"
    },
    {
        "id": "51",
        "type": 5,
        "categoryType": 0,
        "label": "Entretien et réparations",
        "code": "615",
        "description": "Entretien et réparations",
        "vatValue": 0.0,
        "parentId": "2",
        "subCategories": [],
        "classifications": [],
        "createdOn": "2020-02-15T12:53:17+00:00",
        "lastModifiedOn": "2020-02-15T12:53:18+00:00",
        "searchTerms": "615 Entretien et réparations"
    },
    {
        "id": "52",
        "type": 5,
        "categoryType": 0,
        "label": "Primes d'assurances",
        "code": "616",
        "description": "Primes d'assurances",
        "vatValue": 0.0,
        "parentId": "2",
        "subCategories": [],
        "classifications": [],
        "createdOn": "2020-02-15T12:53:17+00:00",
        "lastModifiedOn": "2020-02-15T12:53:18+00:00",
        "searchTerms": "616 Primes d'assurances"
    },
    {
        "id": "53",
        "type": 5,
        "categoryType": 0,
        "label": "Etudes et recherches",
        "code": "617",
        "description": "Etudes et recherches",
        "vatValue": 0.0,
        "parentId": "2",
        "subCategories": [],
        "classifications": [],
        "createdOn": "2020-02-15T12:53:17+00:00",
        "lastModifiedOn": "2020-02-15T12:53:18+00:00",
        "searchTerms": "617 Etudes et recherches"
    },
    {
        "id": "54",
        "type": 5,
        "categoryType": 0,
        "label": "Divers",
        "code": "618",
        "description": "Divers",
        "vatValue": 0.0,
        "parentId": "2",
        "subCategories": [],
        "classifications": [],
        "createdOn": "2020-02-15T12:53:17+00:00",
        "lastModifiedOn": "2020-02-15T12:53:18+00:00",
        "searchTerms": "618 Divers"
    },
    {
        "id": "55",
        "type": 5,
        "categoryType": 0,
        "label": "Autres services extérieurs",
        "code": "620",
        "description": "Autres services extérieurs",
        "vatValue": 0.0,
        "parentId": "2",
        "subCategories": [],
        "classifications": [],
        "createdOn": "2020-02-15T12:53:17+00:00",
        "lastModifiedOn": "2020-02-15T12:53:18+00:00",
        "searchTerms": "620 Autres services extérieurs"
    },
    {
        "id": "56",
        "type": 5,
        "categoryType": 0,
        "label": "Personnel extérieur à l'entreprise",
        "code": "621",
        "description": "Personnel extérieur à l'entreprise",
        "vatValue": 0.0,
        "parentId": "2",
        "subCategories": [],
        "classifications": [],
        "createdOn": "2020-02-15T12:53:17+00:00",
        "lastModifiedOn": "2020-02-15T12:53:18+00:00",
        "searchTerms": "621 Personnel extérieur à l'entreprise"
    },
    {
        "id": "57",
        "type": 5,
        "categoryType": 0,
        "label": "Rémunérations d'intermédiaires et honoraires",
        "code": "622",
        "description": "Rémunérations d'intermédiaires et honoraires",
        "vatValue": 0.0,
        "parentId": "2",
        "subCategories": [],
        "classifications": [],
        "createdOn": "2020-02-15T12:53:17+00:00",
        "lastModifiedOn": "2020-02-15T12:53:18+00:00",
        "searchTerms": "622 Rémunérations d'intermédiaires et honoraires"
    },
    {
        "id": "58",
        "type": 5,
        "categoryType": 0,
        "label": "Publicité, publications, relations publiques",
        "code": "623",
        "description": "Publicité, publications, relations publiques",
        "vatValue": 0.0,
        "parentId": "2",
        "subCategories": [],
        "classifications": [],
        "createdOn": "2020-02-15T12:53:17+00:00",
        "lastModifiedOn": "2020-02-15T12:53:18+00:00",
        "searchTerms": "623 Publicité, publications, relations publiques"
    },
    {
        "id": "59",
        "type": 5,
        "categoryType": 0,
        "label": "Transports de biens et transports collectifs du personnel",
        "code": "624",
        "description": "Transports de biens et transports collectifs du personnel",
        "vatValue": 0.0,
        "parentId": "2",
        "subCategories": [],
        "classifications": [],
        "createdOn": "2020-02-15T12:53:17+00:00",
        "lastModifiedOn": "2020-02-15T12:53:18+00:00",
        "searchTerms": "624 Transports de biens et transports collectifs du personnel"
    },
    {
        "id": "60",
        "type": 5,
        "categoryType": 0,
        "label": "Déplacements, missions et réceptions",
        "code": "625",
        "description": "Déplacements, missions et réceptions",
        "vatValue": 0.0,
        "parentId": "2",
        "subCategories": [],
        "classifications": [],
        "createdOn": "2020-02-15T12:53:17+00:00",
        "lastModifiedOn": "2020-02-15T12:53:18+00:00",
        "searchTerms": "625 Déplacements, missions et réceptions"
    },
    {
        "id": "61",
        "type": 5,
        "categoryType": 0,
        "label": "Frais postaux et de télécommunications",
        "code": "626",
        "description": "Frais postaux et de télécommunications",
        "vatValue": 0.0,
        "parentId": "2",
        "subCategories": [],
        "classifications": [],
        "createdOn": "2020-02-15T12:53:17+00:00",
        "lastModifiedOn": "2020-02-15T12:53:18+00:00",
        "searchTerms": "626 Frais postaux et de télécommunications"
    },
    {
        "id": "62",
        "type": 5,
        "categoryType": 0,
        "label": "Services bancaires et assimilés",
        "code": "627",
        "description": "Services bancaires et assimilés",
        "vatValue": 0.0,
        "parentId": "2",
        "subCategories": [],
        "classifications": [],
        "createdOn": "2020-02-15T12:53:17+00:00",
        "lastModifiedOn": "2020-02-15T12:53:18+00:00",
        "searchTerms": "627 Services bancaires et assimilés"
    },
    {
        "id": "63",
        "type": 5,
        "categoryType": 0,
        "label": "Autres services extérieurs - Divers",
        "code": "628",
        "description": "Autres services extérieurs - Divers",
        "vatValue": 0.0,
        "parentId": "2",
        "subCategories": [],
        "classifications": [],
        "createdOn": "2020-02-15T12:53:17+00:00",
        "lastModifiedOn": "2020-02-15T12:53:18+00:00",
        "searchTerms": "628 Autres services extérieurs - Divers"
    },
    {
        "id": "64",
        "type": 5,
        "categoryType": 0,
        "label": "Impôts, taxes et versements assimilés",
        "code": "63",
        "description": "Impôts, taxes et versements assimilés",
        "vatValue": 0.0,
        "parentId": "2",
        "subCategories": [],
        "classifications": [],
        "createdOn": "2020-02-15T12:53:17+00:00",
        "lastModifiedOn": "2020-02-15T12:53:18+00:00",
        "searchTerms": "630 Impôts, taxes et versements assimilés"
    },
    {
        "id": "65",
        "type": 5,
        "categoryType": 0,
        "label": "Charges diverses de gestion courante",
        "code": "658",
        "description": "Charges diverses de gestion courante",
        "vatValue": 0.0,
        "parentId": "2",
        "subCategories": [],
        "classifications": [],
        "createdOn": "2020-02-15T12:53:17+00:00",
        "lastModifiedOn": "2020-02-15T12:53:18+00:00",
        "searchTerms": "658 Charges diverses de gestion courante"
    }
]